#==================================================
#Material list
#This file has been created by PoseRay v3.13.4.467
#3D model to POV-Ray/Moray Converter.
#Author: FlyerX
#Email: flyerx_2000@yahoo.com
#Web: http://mysite.verizon.net/sfg0000/
#==================================================
 
#==================================================
newmtl unnamed_material
Ns 2.5
Ka 0 0 0
Kd 1 1 0
Ks 0 0 0
d 1
#Ka2 0 0 0
#Ks2 0 0 0
#Ns2 100
#r 0
#r2 0
#cell_hi
#trans1_su 1
#trans1_sv 1
#trans1_tu 0
#trans1_tv 0
#trans1_r 0
#trans1_ru0 0
#trans1_rv0 0
#trans2_su 1
#trans2_sv 1
#trans2_tu 0
#trans2_tv 0
#trans2_r 0
#trans2_ru0 0
#trans2_rv0 0
#trans3_su 1
#trans3_sv 1
#trans3_tu 0
#trans3_tv 0
#trans3_r 0
#trans3_ru0 0
#trans3_rv0 0
#trans4_su 1
#trans4_sv 1
#trans4_tu 0
#trans4_tv 0
#trans4_r 0
#trans4_ru0 0
#trans4_rv0 0
 
